{
  "meta" : {
    "limit" : 25,
    "next" : "/api/v1/idea/?limit=25&offset=25",
    "offset" : 0,
    "previous" : null,
    "total_count" : 500
  },
  "objects" : [{
      "backer_count" : 7,
      "backers" : [{
          "date_joined" : "2010-08-03T15:07:28.668725",
          "email" : " traps speeder",
          "first_name" : " stuffing television",
          "id" : 142,
          "last_login" : "2014-02-04T07:14:47.422334",
          "last_name" : " rolls butts",
          "resource_uri" : "/api/v1/user/142/",
          "username" : "guide"
        }, {
          "date_joined" : "2012-03-13T21:41:01.943770",
          "email" : " belief",
          "first_name" : " wagons tacks",
          "id" : 156,
          "last_login" : "2010-12-06T15:44:05.905761",
          "last_name" : " vehicles computers firefighti",
          "resource_uri" : "/api/v1/user/156/",
          "username" : "embosses"
        }, {
          "date_joined" : "2009-04-05T16:48:34.212095",
          "email" : " blindfolds flash teller remainder degree cosals",
          "first_name" : " hardness cars",
          "id" : 265,
          "last_login" : "2011-08-05T11:01:20.744700",
          "last_name" : " seasoning",
          "resource_uri" : "/api/v1/user/265/",
          "username" : "superstructures"
        }, {
          "date_joined" : "2011-10-02T15:40:45.317804",
          "email" : " relocations monoliths option overtime manners",
          "first_name" : " compiler snaps",
          "id" : 307,
          "last_login" : "2012-12-22T21:14:01.083570",
          "last_name" : " repairs",
          "resource_uri" : "/api/v1/user/307/",
          "username" : "reward"
        }, {
          "date_joined" : "2009-03-04T14:04:27.397239",
          "email" : " spades bigamy importance knot fiber cities",
          "first_name" : " transit photodiode",
          "id" : 378,
          "last_login" : "2010-04-15T00:25:29.575394",
          "last_name" : " assignments troubles reserve",
          "resource_uri" : "/api/v1/user/378/",
          "username" : "power"
        }, {
          "date_joined" : "2009-07-15T20:49:03.598451",
          "email" : " triangle event classification observations",
          "first_name" : " track groceries",
          "id" : 414,
          "last_login" : "2012-05-07T15:03:34.098761",
          "last_name" : " aliases oceans berth",
          "resource_uri" : "/api/v1/user/414/",
          "username" : "halt"
        }, {
          "date_joined" : "2010-11-21T13:30:39.300287",
          "email" : " weight solution",
          "first_name" : " judge overcurrents blueprint",
          "id" : 452,
          "last_login" : "2011-01-01T07:46:17.635596",
          "last_name" : " conventions feature",
          "resource_uri" : "/api/v1/user/452/",
          "username" : "respects"
        }
      ],
      "classification" : "PRIVATE",
      "date_published" : "2011-11-16T09:49:11.403890",
      "date_verified" : "2012-04-22T19:37:33.607136",
      "description" : " rollout performance clericals quarters condenser diode damage dump terrain standardization data gyro helmet sort",
      "dislikes" : 0,
      "id" : 1,
        "dislike_count" : 4,
        "like_count" : 14,
      "likes" : 2,
      "resource_uri" : "/api/v1/idea/1/",
      "tags" : [{
          "id" : 2,
          "name" : "xxx_test_tag",
          "resource_uri" : "/api/v1/tag/2/",
          "slug" : "xxx_test_tag"
        }, {
          "id" : 1,
          "name" : "acquisitions\n",
          "resource_uri" : "/api/v1/tag/1/",
          "slug" : "acquisitions"
        }, {
          "id" : 13,
          "name" : "accrual\n",
          "resource_uri" : "/api/v1/tag/13/",
          "slug" : "accrual"
        }, {
          "id" : 26,
          "name" : "acceptances\n",
          "resource_uri" : "/api/v1/tag/26/",
          "slug" : "acceptances"
        }, {
          "id" : 9,
          "name" : "accesses\n",
          "resource_uri" : "/api/v1/tag/9/",
          "slug" : "accesses"
        }
      ],
      "title" : " languages trick bits",
      "user" : "/api/v1/user/415/",
      "verified" : true,
      "votes" : [{
          "id" : 277,
          "idea" : "/api/v1/idea/1/",
          "resource_uri" : "/api/v1/votes/277/",
          "vote_date" : "2011-01-21T19:00:41.900383",
          "vote_value" : 2
        }
      ],
      "voting_ts" : [{
          "vote_date" : "2011-01-21T19:00:41.900383",
          "vote_value" : 2
        }
      ]
    }, {
      "backer_count" : 1,
      "backers" : [{
          "date_joined" : "2013-03-13T00:09:37.385259",
          "email" : " printouts ideas shovel deposition grooms",
          "first_name" : " visibilities lapses",
          "id" : 468,
          "last_login" : "2014-01-19T00:57:13.840243",
          "last_name" : " decision analyzer designation",
          "resource_uri" : "/api/v1/user/468/",
          "username" : "sack"
        }
      ],
      "classification" : "RESTRICTED",
      "date_published" : "2012-07-04T21:40:54.085174",
      "date_verified" : "2012-01-05T14:58:55.544702",
      "description" : " typewriter aggravation inches grooms navigator reveille bytes sign law addition scream transportation logs authority page graphs weapons ray abbreviations packages ignition junction rains stares gasoline break labels nothing privileges potatos",
      "dislikes" : 0,
      "id" : 2,
        "dislike_count": 0, 
  "like_count": 0, 
      "likes" : 0,
      "resource_uri" : "/api/v1/idea/2/",
      "tags" : [{
          "id" : 19,
          "name" : "access\n",
          "resource_uri" : "/api/v1/tag/19/",
          "slug" : "access"
        }, {
          "id" : 26,
          "name" : "acceptances\n",
          "resource_uri" : "/api/v1/tag/26/",
          "slug" : "acceptances"
        }, {
          "id" : 32,
          "name" : "abbreviation\n",
          "resource_uri" : "/api/v1/tag/32/",
          "slug" : "abbreviation"
        }, {
          "id" : 6,
          "name" : "abilities\n",
          "resource_uri" : "/api/v1/tag/6/",
          "slug" : "abilities"
        }, {
          "id" : 2,
          "name" : "xxx_test_tag",
          "resource_uri" : "/api/v1/tag/2/",
          "slug" : "xxx_test_tag"
        }, {
          "id" : 35,
          "name" : "accountability\n",
          "resource_uri" : "/api/v1/tag/35/",
          "slug" : "accountability"
        }, {
          "id" : 7,
          "name" : "acceptors\n",
          "resource_uri" : "/api/v1/tag/7/",
          "slug" : "acceptors"
        }, {
          "id" : 22,
          "name" : "abrasive\n",
          "resource_uri" : "/api/v1/tag/22/",
          "slug" : "abrasive"
        }, {
          "id" : 42,
          "name" : "accumulations\n",
          "resource_uri" : "/api/v1/tag/42/",
          "slug" : "accumulations"
        }, {
          "id" : 3,
          "name" : "absences\n",
          "resource_uri" : "/api/v1/tag/3/",
          "slug" : "absences"
        }, {
          "id" : 4,
          "name" : "acceptor\n",
          "resource_uri" : "/api/v1/tag/4/",
          "slug" : "acceptor"
        }, {
          "id" : 5,
          "name" : "acceleration\n",
          "resource_uri" : "/api/v1/tag/5/",
          "slug" : "acceleration"
        }, {
          "id" : 14,
          "name" : "accusation\n",
          "resource_uri" : "/api/v1/tag/14/",
          "slug" : "accusation"
        }, {
          "id" : 33,
          "name" : "absence\n",
          "resource_uri" : "/api/v1/tag/33/",
          "slug" : "absence"
        }
      ],
      "title" : " twirls accesses beads",
      "user" : "/api/v1/user/49/",
      "verified" : true,
      "votes" : [],
      "voting_ts" : []
    }, {
      "backer_count" : 8,
      "backers" : [{
          "date_joined" : "2009-04-06T21:27:53.772574",
          "email" : " misalinement deviation",
          "first_name" : " lanes condition trainer condi",
          "id" : 8,
          "last_login" : "2012-10-25T06:23:56.197872",
          "last_name" : " multitask multiplication",
          "resource_uri" : "/api/v1/user/8/",
          "username" : "schedule"
        }, {
          "date_joined" : "2011-09-24T16:42:57.423579",
          "email" : " retrieval",
          "first_name" : " ohm reach cashier",
          "id" : 17,
          "last_login" : "2010-08-19T00:14:11.525481",
          "last_name" : " fireball flag",
          "resource_uri" : "/api/v1/user/17/",
          "username" : "debit"
        }, {
          "date_joined" : "2013-05-12T16:02:22.512771",
          "email" : " nomenclature exterior situations transmissions",
          "first_name" : " examination",
          "id" : 89,
          "last_login" : "2013-02-06T22:17:05.548035",
          "last_name" : " fronts calibers respects",
          "resource_uri" : "/api/v1/user/89/",
          "username" : "armament"
        }, {
          "date_joined" : "2010-07-09T04:31:24.239567",
          "email" : " saddle balloon method battles endings ax",
          "first_name" : " trails preliminaries cases",
          "id" : 131,
          "last_login" : "2010-05-09T04:20:25.223848",
          "last_name" : " south kiloliters",
          "resource_uri" : "/api/v1/user/131/",
          "username" : "drive"
        }, {
          "date_joined" : "2014-01-28T03:18:39.002382",
          "email" : " confinement pushup footing force",
          "first_name" : " seeds fines vicinity",
          "id" : 229,
          "last_login" : "2011-12-10T18:19:36.543397",
          "last_name" : " furs roars",
          "resource_uri" : "/api/v1/user/229/",
          "username" : "sex"
        }, {
          "date_joined" : "2010-02-14T08:59:30.385762",
          "email" : " method schoolroom hip",
          "first_name" : " appraisal crewmembers",
          "id" : 392,
          "last_login" : "2010-10-05T05:10:12.972953",
          "last_name" : " girl locks",
          "resource_uri" : "/api/v1/user/392/",
          "username" : "dwell"
        }, {
          "date_joined" : "2011-05-10T06:40:02.650639",
          "email" : " spiral transits tie",
          "first_name" : " concentrations ambiguity male",
          "id" : 397,
          "last_login" : "2011-11-18T01:08:21.876465",
          "last_name" : " churn messages",
          "resource_uri" : "/api/v1/user/397/",
          "username" : "rocket"
        }, {
          "date_joined" : "2013-02-07T04:12:09.936969",
          "email" : " hem laser wingnuts bullets career",
          "first_name" : " hangar plastics",
          "id" : 492,
          "last_login" : "2010-11-09T02:28:57.751117",
          "last_name" : " hum column",
          "resource_uri" : "/api/v1/user/492/",
          "username" : "toothpicks"
        }
      ],
      "classification" : "UNCLASSIFIED",
      "date_published" : "2009-03-19T12:03:56.445994",
      "date_verified" : "2012-08-07T06:25:11.527602",
      "description" : " ceremonies chairmen directories reveille reductions smashes percentage present blasts worth stumps items track axis margins bristle collector seconds conjunctions headings insertion auxiliaries steeple tunes cup boatswain algebra concepts offense communication west mirror fields emergency fiction wardrooms fasteners",
      "dislikes" : 0,
      "id" : 3,
              "dislike_count" : 11,
        "like_count" : 55,
      "likes" : 0,
      "resource_uri" : "/api/v1/idea/3/",
      "tags" : [],
      "title" : " modules circuit forecasts capital charge millimeters lash embosses magneto",
      "user" : "/api/v1/user/35/",
      "verified" : true,
      "votes" : [],
      "voting_ts" : []
    }, {
      "backer_count" : 2,
      "backers" : [{
          "date_joined" : "2012-06-22T19:17:14.077384",
          "email" : " column war grants anticipation",
          "first_name" : " aprons breakdowns",
          "id" : 91,
          "last_login" : "2010-06-11T10:56:34.247893",
          "last_name" : " altitude",
          "resource_uri" : "/api/v1/user/91/",
          "username" : "maneuvers"
        }, {
          "date_joined" : "2010-02-23T00:45:06.704962",
          "email" : " store monoliths liberty grooves",
          "first_name" : " clap floors",
          "id" : 493,
          "last_login" : "2010-01-20T03:24:24.066098",
          "last_name" : " diagnosis fuels",
          "resource_uri" : "/api/v1/user/493/",
          "username" : "automation"
        }
      ],
      "classification" : "CONFIDENTIAL",
      "date_published" : "2010-10-05T21:59:36.172752",
      "date_verified" : "2011-11-03T09:43:31.018729",
      "description" : " spills fact core accidents drydock prepositions distributor satellites execution dwell distress volume slits country card keels ounces misalignment cements saddle responses composition farms overcurrents codes rumble",
      "dislikes" : 0,
      "id" : 4,
      "likes" : 0,
              "dislike_count" : 54,
        "like_count" : 31,
      "resource_uri" : "/api/v1/idea/4/",
      "tags" : [{
          "id" : 2,
          "name" : "xxx_test_tag",
          "resource_uri" : "/api/v1/tag/2/",
          "slug" : "xxx_test_tag"
        }, {
          "id" : 8,
          "name" : "abuse\n",
          "resource_uri" : "/api/v1/tag/8/",
          "slug" : "abuse"
        }
      ],
      "title" : " hopes river alibis services diagonals parcels laugh nations automobiles impact vapor measures question",
      "user" : "/api/v1/user/307/",
      "verified" : true,
      "votes" : [],
      "voting_ts" : []
    }
  ]
}
