{
  "meta" : {
    "limit" : 25,
    "next" : "/api/v1/idea/?limit=25&offset=25",
    "offset" : 0,
    "previous" : null,
    "total_count" : 500
  },
  "objects" : [{
      "backer_count" : 7,
      "backers" : [{
          "date_joined" : "2010-08-03T15:07:28.668725",
          "email" : " traps speeder",
          "first_name" : " stuffing television",
          "id" : 142,
          "last_login" : "2014-02-04T07:14:47.422334",
          "last_name" : " rolls butts",
          "resource_uri" : "/api/v1/user/142/",
          "username" : "guide"
        }, {
          "date_joined" : "2012-03-13T21:41:01.943770",
          "email" : " belief",
          "first_name" : " wagons tacks",
          "id" : 156,
          "last_login" : "2010-12-06T15:44:05.905761",
          "last_name" : " vehicles computers firefighti",
          "resource_uri" : "/api/v1/user/156/",
          "username" : "embosses"
        }, {
          "date_joined" : "2009-04-05T16:48:34.212095",
          "email" : " blindfolds flash teller remainder degree cosals",
          "first_name" : " hardness cars",
          "id" : 265,
          "last_login" : "2011-08-05T11:01:20.744700",
          "last_name" : " seasoning",
          "resource_uri" : "/api/v1/user/265/",
          "username" : "superstructures"
        }, {
          "date_joined" : "2011-10-02T15:40:45.317804",
          "email" : " relocations monoliths option overtime manners",
          "first_name" : " compiler snaps",
          "id" : 307,
          "last_login" : "2012-12-22T21:14:01.083570",
          "last_name" : " repairs",
          "resource_uri" : "/api/v1/user/307/",
          "username" : "reward"
        }, {
          "date_joined" : "2009-03-04T14:04:27.397239",
          "email" : " spades bigamy importance knot fiber cities",
          "first_name" : " transit photodiode",
          "id" : 378,
          "last_login" : "2010-04-15T00:25:29.575394",
          "last_name" : " assignments troubles reserve",
          "resource_uri" : "/api/v1/user/378/",
          "username" : "power"
        }, {
          "date_joined" : "2009-07-15T20:49:03.598451",
          "email" : " triangle event classification observations",
          "first_name" : " track groceries",
          "id" : 414,
          "last_login" : "2012-05-07T15:03:34.098761",
          "last_name" : " aliases oceans berth",
          "resource_uri" : "/api/v1/user/414/",
          "username" : "halt"
        }, {
          "date_joined" : "2010-11-21T13:30:39.300287",
          "email" : " weight solution",
          "first_name" : " judge overcurrents blueprint",
          "id" : 452,
          "last_login" : "2011-01-01T07:46:17.635596",
          "last_name" : " conventions feature",
          "resource_uri" : "/api/v1/user/452/",
          "username" : "respects"
        }
      ],
      "classification" : "PRIVATE",
      "date_published" : "2011-11-16T09:49:11.403890",
      "date_verified" : "2012-04-22T19:37:33.607136",
      "description" : " rollout performance clericals quarters condenser diode damage dump terrain standardization data gyro helmet sort",
      "dislikes" : 0,
      "id" : 1,
      "likes" : 2,
      "resource_uri" : "/api/v1/idea/1/",
      "tags" : [{
          "id" : 2,
          "name" : "xxx_test_tag",
          "resource_uri" : "/api/v1/tag/2/",
          "slug" : "xxx_test_tag"
        }, {
          "id" : 1,
          "name" : "acquisitions\n",
          "resource_uri" : "/api/v1/tag/1/",
          "slug" : "acquisitions"
        }, {
          "id" : 13,
          "name" : "accrual\n",
          "resource_uri" : "/api/v1/tag/13/",
          "slug" : "accrual"
        }, {
          "id" : 26,
          "name" : "acceptances\n",
          "resource_uri" : "/api/v1/tag/26/",
          "slug" : "acceptances"
        }, {
          "id" : 9,
          "name" : "accesses\n",
          "resource_uri" : "/api/v1/tag/9/",
          "slug" : "accesses"
        }
      ],
      "title" : " languages trick bits",
      "user" : "/api/v1/user/415/",
      "verified" : true,
      "votes" : [{
          "id" : 277,
          "idea" : "/api/v1/idea/1/",
          "resource_uri" : "/api/v1/votes/277/",
          "vote_date" : "2011-01-21T19:00:41.900383",
          "vote_value" : 2
        }
      ],
      "voting_ts" : [{
          "vote_date" : "2011-01-21T19:00:41.900383",
          "vote_value" : 2
        }
      ]
    }, {
      "backer_count" : 1,
      "backers" : [{
          "date_joined" : "2013-03-13T00:09:37.385259",
          "email" : " printouts ideas shovel deposition grooms",
          "first_name" : " visibilities lapses",
          "id" : 468,
          "last_login" : "2014-01-19T00:57:13.840243",
          "last_name" : " decision analyzer designation",
          "resource_uri" : "/api/v1/user/468/",
          "username" : "sack"
        }
      ],
      "classification" : "RESTRICTED",
      "date_published" : "2012-07-04T21:40:54.085174",
      "date_verified" : "2012-01-05T14:58:55.544702",
      "description" : " typewriter aggravation inches grooms navigator reveille bytes sign law addition scream transportation logs authority page graphs weapons ray abbreviations packages ignition junction rains stares gasoline break labels nothing privileges potatos",
      "dislikes" : 0,
      "id" : 2,
      "likes" : 0,
      "resource_uri" : "/api/v1/idea/2/",
      "tags" : [{
          "id" : 19,
          "name" : "access\n",
          "resource_uri" : "/api/v1/tag/19/",
          "slug" : "access"
        }, {
          "id" : 26,
          "name" : "acceptances\n",
          "resource_uri" : "/api/v1/tag/26/",
          "slug" : "acceptances"
        }, {
          "id" : 32,
          "name" : "abbreviation\n",
          "resource_uri" : "/api/v1/tag/32/",
          "slug" : "abbreviation"
        }, {
          "id" : 6,
          "name" : "abilities\n",
          "resource_uri" : "/api/v1/tag/6/",
          "slug" : "abilities"
        }, {
          "id" : 2,
          "name" : "xxx_test_tag",
          "resource_uri" : "/api/v1/tag/2/",
          "slug" : "xxx_test_tag"
        }, {
          "id" : 35,
          "name" : "accountability\n",
          "resource_uri" : "/api/v1/tag/35/",
          "slug" : "accountability"
        }, {
          "id" : 7,
          "name" : "acceptors\n",
          "resource_uri" : "/api/v1/tag/7/",
          "slug" : "acceptors"
        }, {
          "id" : 22,
          "name" : "abrasive\n",
          "resource_uri" : "/api/v1/tag/22/",
          "slug" : "abrasive"
        }, {
          "id" : 42,
          "name" : "accumulations\n",
          "resource_uri" : "/api/v1/tag/42/",
          "slug" : "accumulations"
        }, {
          "id" : 3,
          "name" : "absences\n",
          "resource_uri" : "/api/v1/tag/3/",
          "slug" : "absences"
        }, {
          "id" : 4,
          "name" : "acceptor\n",
          "resource_uri" : "/api/v1/tag/4/",
          "slug" : "acceptor"
        }, {
          "id" : 5,
          "name" : "acceleration\n",
          "resource_uri" : "/api/v1/tag/5/",
          "slug" : "acceleration"
        }, {
          "id" : 14,
          "name" : "accusation\n",
          "resource_uri" : "/api/v1/tag/14/",
          "slug" : "accusation"
        }, {
          "id" : 33,
          "name" : "absence\n",
          "resource_uri" : "/api/v1/tag/33/",
          "slug" : "absence"
        }
      ],
      "title" : " twirls accesses beads",
      "user" : "/api/v1/user/49/",
      "verified" : true,
      "votes" : [],
      "voting_ts" : []
    }, {
      "backer_count" : 8,
      "backers" : [{
          "date_joined" : "2009-04-06T21:27:53.772574",
          "email" : " misalinement deviation",
          "first_name" : " lanes condition trainer condi",
          "id" : 8,
          "last_login" : "2012-10-25T06:23:56.197872",
          "last_name" : " multitask multiplication",
          "resource_uri" : "/api/v1/user/8/",
          "username" : "schedule"
        }, {
          "date_joined" : "2011-09-24T16:42:57.423579",
          "email" : " retrieval",
          "first_name" : " ohm reach cashier",
          "id" : 17,
          "last_login" : "2010-08-19T00:14:11.525481",
          "last_name" : " fireball flag",
          "resource_uri" : "/api/v1/user/17/",
          "username" : "debit"
        }, {
          "date_joined" : "2013-05-12T16:02:22.512771",
          "email" : " nomenclature exterior situations transmissions",
          "first_name" : " examination",
          "id" : 89,
          "last_login" : "2013-02-06T22:17:05.548035",
          "last_name" : " fronts calibers respects",
          "resource_uri" : "/api/v1/user/89/",
          "username" : "armament"
        }, {
          "date_joined" : "2010-07-09T04:31:24.239567",
          "email" : " saddle balloon method battles endings ax",
          "first_name" : " trails preliminaries cases",
          "id" : 131,
          "last_login" : "2010-05-09T04:20:25.223848",
          "last_name" : " south kiloliters",
          "resource_uri" : "/api/v1/user/131/",
          "username" : "drive"
        }, {
          "date_joined" : "2014-01-28T03:18:39.002382",
          "email" : " confinement pushup footing force",
          "first_name" : " seeds fines vicinity",
          "id" : 229,
          "last_login" : "2011-12-10T18:19:36.543397",
          "last_name" : " furs roars",
          "resource_uri" : "/api/v1/user/229/",
          "username" : "sex"
        }, {
          "date_joined" : "2010-02-14T08:59:30.385762",
          "email" : " method schoolroom hip",
          "first_name" : " appraisal crewmembers",
          "id" : 392,
          "last_login" : "2010-10-05T05:10:12.972953",
          "last_name" : " girl locks",
          "resource_uri" : "/api/v1/user/392/",
          "username" : "dwell"
        }, {
          "date_joined" : "2011-05-10T06:40:02.650639",
          "email" : " spiral transits tie",
          "first_name" : " concentrations ambiguity male",
          "id" : 397,
          "last_login" : "2011-11-18T01:08:21.876465",
          "last_name" : " churn messages",
          "resource_uri" : "/api/v1/user/397/",
          "username" : "rocket"
        }, {
          "date_joined" : "2013-02-07T04:12:09.936969",
          "email" : " hem laser wingnuts bullets career",
          "first_name" : " hangar plastics",
          "id" : 492,
          "last_login" : "2010-11-09T02:28:57.751117",
          "last_name" : " hum column",
          "resource_uri" : "/api/v1/user/492/",
          "username" : "toothpicks"
        }
      ],
      "classification" : "UNCLASSIFIED",
      "date_published" : "2009-03-19T12:03:56.445994",
      "date_verified" : "2012-08-07T06:25:11.527602",
      "description" : " ceremonies chairmen directories reveille reductions smashes percentage present blasts worth stumps items track axis margins bristle collector seconds conjunctions headings insertion auxiliaries steeple tunes cup boatswain algebra concepts offense communication west mirror fields emergency fiction wardrooms fasteners",
      "dislikes" : 0,
      "id" : 3,
      "likes" : 0,
      "resource_uri" : "/api/v1/idea/3/",
      "tags" : [],
      "title" : " modules circuit forecasts capital charge millimeters lash embosses magneto",
      "user" : "/api/v1/user/35/",
      "verified" : true,
      "votes" : [],
      "voting_ts" : []
    }, {
      "backer_count" : 2,
      "backers" : [{
          "date_joined" : "2012-06-22T19:17:14.077384",
          "email" : " column war grants anticipation",
          "first_name" : " aprons breakdowns",
          "id" : 91,
          "last_login" : "2010-06-11T10:56:34.247893",
          "last_name" : " altitude",
          "resource_uri" : "/api/v1/user/91/",
          "username" : "maneuvers"
        }, {
          "date_joined" : "2010-02-23T00:45:06.704962",
          "email" : " store monoliths liberty grooves",
          "first_name" : " clap floors",
          "id" : 493,
          "last_login" : "2010-01-20T03:24:24.066098",
          "last_name" : " diagnosis fuels",
          "resource_uri" : "/api/v1/user/493/",
          "username" : "automation"
        }
      ],
      "classification" : "CONFIDENTIAL",
      "date_published" : "2010-10-05T21:59:36.172752",
      "date_verified" : "2011-11-03T09:43:31.018729",
      "description" : " spills fact core accidents drydock prepositions distributor satellites execution dwell distress volume slits country card keels ounces misalignment cements saddle responses composition farms overcurrents codes rumble",
      "dislikes" : 0,
      "id" : 4,
      "likes" : 0,
      "resource_uri" : "/api/v1/idea/4/",
      "tags" : [{
          "id" : 2,
          "name" : "xxx_test_tag",
          "resource_uri" : "/api/v1/tag/2/",
          "slug" : "xxx_test_tag"
        }, {
          "id" : 8,
          "name" : "abuse\n",
          "resource_uri" : "/api/v1/tag/8/",
          "slug" : "abuse"
        }
      ],
      "title" : " hopes river alibis services diagonals parcels laugh nations automobiles impact vapor measures question",
      "user" : "/api/v1/user/307/",
      "verified" : true,
      "votes" : [],
      "voting_ts" : []
    },
        {
      "backer_count": 4, 
      "backers": [
        {
          "date_joined": "2011-06-20T10:53:15.909839", 
          "email": " rainbow auxiliaries sugar society", 
          "first_name": " clamp", 
          "id": 11, 
          "last_login": "2009-10-24T06:37:50.402965", 
          "last_name": " integers details evaporation", 
          "resource_uri": "/api/v1/user/11/", 
          "username": "boxcar"
        }, 
        {
          "date_joined": "2012-02-22T07:20:11.113017", 
          "email": " cleat variety", 
          "first_name": " excuse skill", 
          "id": 321, 
          "last_login": "2009-11-23T10:45:00.026593", 
          "last_name": " clicks blot deductions", 
          "resource_uri": "/api/v1/user/321/", 
          "username": "cards"
        }, 
        {
          "date_joined": "2009-07-09T03:26:25.467381", 
          "email": " blazes spray seeds", 
          "first_name": " similarity scene", 
          "id": 367, 
          "last_login": "2011-10-28T00:13:21.923108", 
          "last_name": " windows print tapes", 
          "resource_uri": "/api/v1/user/367/", 
          "username": "complexes"
        }, 
        {
          "date_joined": "2012-05-27T01:42:47.019458", 
          "email": " toolboxes", 
          "first_name": " successes", 
          "id": 441, 
          "last_login": "2009-03-05T17:28:10.530312", 
          "last_name": " rebounds analyst", 
          "resource_uri": "/api/v1/user/441/", 
          "username": "rotor"
        }
      ], 
      "classification": "PRIVATE", 
      "date_published": "2010-12-18T12:47:39.044003", 
      "date_verified": "2011-01-24T02:23:37.127765", 
      "description": " lamp runoffs bottoms sunlight dust subordinates verses guidelines preventions january ratio resources liberty cord suppression lettering chairwoman roadside", 
      "dislikes": 0, 
      "id": 33, 
      "likes": 5, 
      "resource_uri": "/api/v1/idea/33/", 
      "tags": [], 
      "title": " divers engine editor dip measures dependents sweeps slots", 
      "user": "/api/v1/user/407/", 
      "verified": true, 
      "votes": [
        {
          "id": 376, 
          "idea": "/api/v1/idea/33/", 
          "resource_uri": "/api/v1/votes/376/", 
          "vote_date": "2013-09-30T15:43:10.091745", 
          "vote_value": 3
        }, 
        {
          "id": 377, 
          "idea": "/api/v1/idea/33/", 
          "resource_uri": "/api/v1/votes/377/", 
          "vote_date": "2011-02-16T12:41:38.742564", 
          "vote_value": 2
        }
      ], 
      "voting_ts": [
        {
          "vote_date": "2013-09-30T15:43:10.091745", 
          "vote_value": 3
        }, 
        {
          "vote_date": "2011-02-16T12:41:38.742564", 
          "vote_value": 2
        }
      ]
    }, 
    {
      "backer_count": 4, 
      "backers": [
        {
          "date_joined": "2009-05-09T21:22:30.659760", 
          "email": " ice tilling weld stares citizens", 
          "first_name": " can grip calories", 
          "id": 36, 
          "last_login": "2011-05-16T19:23:19.738245", 
          "last_name": " tomorrow respects", 
          "resource_uri": "/api/v1/user/36/", 
          "username": "barometer"
        }, 
        {
          "date_joined": "2011-08-07T15:01:04.569375", 
          "email": " arch thirds windings", 
          "first_name": " juries struts welders", 
          "id": 61, 
          "last_login": "2011-07-21T14:06:43.414244", 
          "last_name": " presses tendencies", 
          "resource_uri": "/api/v1/user/61/", 
          "username": "curl"
        }, 
        {
          "date_joined": "2012-11-20T07:55:18.040345", 
          "email": " concentrations rights", 
          "first_name": " button washers", 
          "id": 314, 
          "last_login": "2012-09-26T08:47:11.816239", 
          "last_name": " swamps patrols sentences", 
          "resource_uri": "/api/v1/user/314/", 
          "username": "sight"
        }, 
        {
          "date_joined": "2013-05-29T01:41:53.548423", 
          "email": " generators quota", 
          "first_name": " complaint", 
          "id": 419, 
          "last_login": "2012-05-19T18:15:41.144524", 
          "last_name": " fashions fiction pat", 
          "resource_uri": "/api/v1/user/419/", 
          "username": "wires"
        }
      ], 
      "classification": "RESTRICTED", 
      "date_published": "2012-04-28T12:04:21.895355", 
      "date_verified": "2011-05-28T14:31:26.250649", 
      "description": " eights completion worksheet compliances armament pen state indicators hall visit binders cotton name nozzles damage fluids pressures reconfigurations discontinuations bunches sanitation analyses launch selectors practice earth map", 
      "dislikes": 0, 
      "id": 45, 
      "likes": 5, 
      "resource_uri": "/api/v1/idea/45/", 
      "tags": [], 
      "title": " setting stamp fork sterilizer movement column dials superlatives sediments", 
      "user": "/api/v1/user/33/", 
      "verified": true, 
      "votes": [
        {
          "id": 246, 
          "idea": "/api/v1/idea/45/", 
          "resource_uri": "/api/v1/votes/246/", 
          "vote_date": "2013-06-06T15:11:37.484044", 
          "vote_value": 5
        }
      ], 
      "voting_ts": [
        {
          "vote_date": "2013-06-06T15:11:37.484044", 
          "vote_value": 5
        }
      ]
    }, 
    {
      "backer_count": 9, 
      "backers": [
        {
          "date_joined": "2011-09-21T15:54:07.277646", 
          "email": " stubs nurses soles exercise", 
          "first_name": " ability", 
          "id": 27, 
          "last_login": "2010-10-01T07:33:23.460291", 
          "last_name": " policy separations", 
          "resource_uri": "/api/v1/user/27/", 
          "username": "records"
        }, 
        {
          "date_joined": "2010-08-26T04:39:20.004525", 
          "email": " proportions steam cord bat", 
          "first_name": " macro stretcher gleam", 
          "id": 41, 
          "last_login": "2013-05-16T17:55:56.089758", 
          "last_name": " facepiece numerals ax", 
          "resource_uri": "/api/v1/user/41/", 
          "username": "publication"
        }, 
        {
          "date_joined": "2010-07-16T20:56:36.456376", 
          "email": " intelligence investigator", 
          "first_name": " enlistment", 
          "id": 49, 
          "last_login": "2010-01-12T16:07:52.525354", 
          "last_name": " striker outlines bandage", 
          "resource_uri": "/api/v1/user/49/", 
          "username": "proposes"
        }, 
        {
          "date_joined": "2009-05-30T02:20:33.447721", 
          "email": " statements verification", 
          "first_name": " presentations switches", 
          "id": 71, 
          "last_login": "2009-03-30T15:53:36.917189", 
          "last_name": " tilling joint wardrooms", 
          "resource_uri": "/api/v1/user/71/", 
          "username": "cellar"
        }, 
        {
          "date_joined": "2013-10-02T18:07:31.867443", 
          "email": " flap sponge", 
          "first_name": " propellers", 
          "id": 207, 
          "last_login": "2013-09-14T08:13:13.234493", 
          "last_name": " artilleries", 
          "resource_uri": "/api/v1/user/207/", 
          "username": "glow"
        }, 
        {
          "date_joined": "2013-05-28T10:19:08.546004", 
          "email": " replacements quartermaster bushes data zero", 
          "first_name": " reinforcement", 
          "id": 329, 
          "last_login": "2009-07-01T01:00:31.024356", 
          "last_name": " designation", 
          "resource_uri": "/api/v1/user/329/", 
          "username": "objective"
        }, 
        {
          "date_joined": "2010-01-18T20:41:59.960140", 
          "email": " girl farms", 
          "first_name": " cheeses auxiliaries", 
          "id": 400, 
          "last_login": "2009-08-13T19:32:25.503006", 
          "last_name": " mill makes procedures bets ch", 
          "resource_uri": "/api/v1/user/400/", 
          "username": "humps"
        }, 
        {
          "date_joined": "2011-11-26T03:21:50.304363", 
          "email": " objective child test", 
          "first_name": " return chapter", 
          "id": 454, 
          "last_login": "2013-07-19T07:11:47.189648", 
          "last_name": " blades workings objects", 
          "resource_uri": "/api/v1/user/454/", 
          "username": "responses"
        }, 
        {
          "date_joined": "2013-10-02T18:38:29.436103", 
          "email": " flange mechanics hoops", 
          "first_name": " bather fathoms signatures", 
          "id": 482, 
          "last_login": "2009-04-22T11:42:43.561922", 
          "last_name": " plans exhaust", 
          "resource_uri": "/api/v1/user/482/", 
          "username": "governments"
        }
      ], 
      "classification": "CONFIDENTIAL", 
      "date_published": "2009-11-21T21:15:41.382486", 
      "date_verified": "2012-06-02T09:19:07.009512", 
      "description": " setting blazes disease catcher lumber town situations associate possibilities sirs destruction regrets buys", 
      "dislikes": 0, 
      "id": 296, 
      "likes": 5, 
      "resource_uri": "/api/v1/idea/296/", 
      "tags": [], 
      "title": " kites representatives berries glow roller", 
      "user": "/api/v1/user/47/", 
      "verified": true, 
      "votes": [
        {
          "id": 486, 
          "idea": "/api/v1/idea/296/", 
          "resource_uri": "/api/v1/votes/486/", 
          "vote_date": "2011-06-14T16:51:50.576902", 
          "vote_value": 4
        }, 
        {
          "id": 5, 
          "idea": "/api/v1/idea/296/", 
          "resource_uri": "/api/v1/votes/5/", 
          "vote_date": "2013-05-13T14:04:35.875049", 
          "vote_value": 1
        }
      ], 
      "voting_ts": [
        {
          "vote_date": "2011-06-14T16:51:50.576902", 
          "vote_value": 4
        }, 
        {
          "vote_date": "2013-05-13T14:04:35.875049", 
          "vote_value": 1
        }
      ]
    }, 
    {
      "backer_count": 8, 
      "backers": [
        {
          "date_joined": "2010-11-22T14:07:19.285621", 
          "email": " lenses oxides births shovel relief", 
          "first_name": " speakers messages", 
          "id": 124, 
          "last_login": "2012-04-28T04:35:09.965539", 
          "last_name": " receivers break bomb", 
          "resource_uri": "/api/v1/user/124/", 
          "username": "beat"
        }, 
        {
          "date_joined": "2012-05-31T21:33:10.319796", 
          "email": " directories holddown", 
          "first_name": " tails ordnance party", 
          "id": 141, 
          "last_login": "2011-01-02T20:17:17.050479", 
          "last_name": " fist couple", 
          "resource_uri": "/api/v1/user/141/", 
          "username": "arch"
        }, 
        {
          "date_joined": "2012-09-24T02:17:14.260318", 
          "email": " printouts homes economies hardships", 
          "first_name": " lieutenants", 
          "id": 152, 
          "last_login": "2009-04-10T09:01:09.868384", 
          "last_name": " controls dominions shovel", 
          "resource_uri": "/api/v1/user/152/", 
          "username": "soles"
        }, 
        {
          "date_joined": "2010-02-21T13:50:36.553631", 
          "email": " nonavailabilities advantage", 
          "first_name": " fronts", 
          "id": 210, 
          "last_login": "2011-01-20T17:25:18.575693", 
          "last_name": " gyro fruits arrangements plat", 
          "resource_uri": "/api/v1/user/210/", 
          "username": "transfer"
        }, 
        {
          "date_joined": "2011-09-10T20:00:12.423943", 
          "email": " pronoun lives bandage replacements prisoners", 
          "first_name": " breast stone nothing", 
          "id": 215, 
          "last_login": "2013-02-13T17:37:28.589519", 
          "last_name": " tablet trace", 
          "resource_uri": "/api/v1/user/215/", 
          "username": "discontinuations"
        }, 
        {
          "date_joined": "2011-02-04T09:09:17.851883", 
          "email": " selections flange destroyer berth analyses compiler", 
          "first_name": " researcher fort", 
          "id": 231, 
          "last_login": "2013-01-18T07:40:03.629303", 
          "last_name": " paneling", 
          "resource_uri": "/api/v1/user/231/", 
          "username": "attachments"
        }, 
        {
          "date_joined": "2012-02-10T06:48:07.234995", 
          "email": " steam sweeps visibilities", 
          "first_name": " seesaws motels selections", 
          "id": 345, 
          "last_login": "2010-10-24T19:40:58.911663", 
          "last_name": " notice percents inspection bo", 
          "resource_uri": "/api/v1/user/345/", 
          "username": "proportions"
        }, 
        {
          "date_joined": "2009-04-18T07:38:08.889528", 
          "email": " hall sales cages legends lake pea muscle doorsteps acre", 
          "first_name": " recording", 
          "id": 379, 
          "last_login": "2009-08-22T02:18:30.898810", 
          "last_name": " chill centerlines rib", 
          "resource_uri": "/api/v1/user/379/", 
          "username": "arrays"
        }
      ], 
      "classification": "RESTRICTED", 
      "date_published": "2014-01-10T17:00:49.873529", 
      "date_verified": "2011-05-15T21:12:50.831549", 
      "description": " terminators charge lift wiggles safety loan animal licenses plow whirls destruction", 
      "dislikes": 0, 
      "id": 362, 
      "likes": 2, 
      "resource_uri": "/api/v1/idea/362/", 
      "tags": [], 
      "title": " knot workmen transformer stem authority development loss watt ordnance", 
      "user": "/api/v1/user/179/", 
      "verified": true, 
      "votes": [
        {
          "id": 113, 
          "idea": "/api/v1/idea/362/", 
          "resource_uri": "/api/v1/votes/113/", 
          "vote_date": "2014-01-22T04:04:17.942836", 
          "vote_value": 2
        }
      ], 
      "voting_ts": [
        {
          "vote_date": "2014-01-22T04:04:17.942836", 
          "vote_value": 2
        }
      ]
    }
  ]
}
